ISO-10303-21;
HEADER;
FILE_DESCRIPTION((''),'2;1');
FILE_NAME('J_BOUCHON_V2','2020-06-12T15:09:39',('mq18p101'),(''),
'CREO PARAMETRIC BY PTC INC, 2017380','CREO PARAMETRIC BY PTC INC, 2017380','');
FILE_SCHEMA(('AUTOMOTIVE_DESIGN { 1 0 10303 214 1 1 1 1 }'));
ENDSEC;
DATA;
#14=CARTESIAN_POINT('',(0.E0,4.551914400963E-14,0.E0));
#15=DIRECTION('',(0.E0,1.E0,0.E0));
#16=DIRECTION('',(0.E0,0.E0,1.E0));
#17=AXIS2_PLACEMENT_3D('',#14,#15,#16);
#19=CARTESIAN_POINT('',(0.E0,4.551914400963E-14,0.E0));
#20=DIRECTION('',(0.E0,1.E0,0.E0));
#21=DIRECTION('',(0.E0,0.E0,-1.E0));
#22=AXIS2_PLACEMENT_3D('',#19,#20,#21);
#24=CARTESIAN_POINT('',(0.E0,0.E0,0.E0));
#25=DIRECTION('',(0.E0,1.E0,0.E0));
#26=DIRECTION('',(0.E0,0.E0,1.E0));
#27=AXIS2_PLACEMENT_3D('',#24,#25,#26);
#29=CARTESIAN_POINT('',(0.E0,0.E0,0.E0));
#30=DIRECTION('',(0.E0,1.E0,0.E0));
#31=DIRECTION('',(0.E0,0.E0,-1.E0));
#32=AXIS2_PLACEMENT_3D('',#29,#30,#31);
#34=CARTESIAN_POINT('',(-2.075978278171E-12,-8.E-1,2.107808636024E1));
#35=DIRECTION('',(1.E0,0.E0,9.848979271032E-14));
#36=DIRECTION('',(9.845150239910E-14,2.776706724036E-2,-9.996144206527E-1));
#37=AXIS2_PLACEMENT_3D('',#34,#35,#36);
#39=CARTESIAN_POINT('',(0.E0,-7.777863462077E-1,0.E0));
#40=DIRECTION('',(0.E0,1.E0,0.E0));
#41=DIRECTION('',(0.E0,0.E0,1.E0));
#42=AXIS2_PLACEMENT_3D('',#39,#40,#41);
#44=DIRECTION('',(6.586644687432E-11,-9.996144206527E-1,-2.776706724216E-2));
#45=VECTOR('',#44,1.522885674516E1);
#46=CARTESIAN_POINT('',(-7.413514246934E-14,-7.777863462077E-1,
2.027839482372E1));
#47=LINE('',#46,#45);
#48=CARTESIAN_POINT('',(0.E0,-1.600077115869E1,0.E0));
#49=DIRECTION('',(0.E0,-1.E0,0.E0));
#50=DIRECTION('',(0.E0,0.E0,-1.E0));
#51=AXIS2_PLACEMENT_3D('',#48,#49,#50);
#53=DIRECTION('',(-6.586634911674E-11,-9.996144206527E-1,2.776706724216E-2));
#54=VECTOR('',#53,1.522885674516E1);
#55=CARTESIAN_POINT('',(7.653946920705E-14,-7.777863462077E-1,
-2.027839482372E1));
#56=LINE('',#55,#54);
#57=CARTESIAN_POINT('',(0.E0,-7.777863462077E-1,0.E0));
#58=DIRECTION('',(0.E0,1.E0,0.E0));
#59=DIRECTION('',(0.E0,0.E0,-1.E0));
#60=AXIS2_PLACEMENT_3D('',#57,#58,#59);
#62=CARTESIAN_POINT('',(0.E0,-1.600077115869E1,0.E0));
#63=DIRECTION('',(0.E0,-1.E0,0.E0));
#64=DIRECTION('',(0.E0,0.E0,1.E0));
#65=AXIS2_PLACEMENT_3D('',#62,#63,#64);
#67=CARTESIAN_POINT('',(2.077990557403E-12,-8.E-1,-2.107808636024E1));
#68=DIRECTION('',(-1.E0,0.E0,-9.858520250150E-14));
#69=DIRECTION('',(-9.854687540223E-14,2.776706724036E-2,9.996144206527E-1));
#70=AXIS2_PLACEMENT_3D('',#67,#68,#69);
#72=DIRECTION('',(-6.831376454429E-11,6.972205292300E-1,7.168567036864E-1));
#73=VECTOR('',#72,2.867426814753E0);
#74=CARTESIAN_POINT('',(1.198881268890E-9,-1.800000000003E1,1.779999999997E1));
#75=LINE('',#74,#73);
#76=CARTESIAN_POINT('',(0.E0,-1.8E1,0.E0));
#77=DIRECTION('',(0.E0,-1.E0,0.E0));
#78=DIRECTION('',(0.E0,0.E0,-1.E0));
#79=AXIS2_PLACEMENT_3D('',#76,#77,#78);
#81=CARTESIAN_POINT('',(-1.712177078080E-14,-1.8E1,0.E0));
#82=DIRECTION('',(0.E0,-1.E0,0.E0));
#83=DIRECTION('',(0.E0,0.E0,1.E0));
#84=AXIS2_PLACEMENT_3D('',#81,#82,#83);
#86=DIRECTION('',(0.E0,-1.E0,0.E0));
#87=VECTOR('',#86,2.E0);
#88=CARTESIAN_POINT('',(0.E0,-1.8E1,-2.E0));
#89=LINE('',#88,#87);
#90=CARTESIAN_POINT('',(0.E0,-1.8E1,0.E0));
#91=DIRECTION('',(0.E0,-1.E0,0.E0));
#92=DIRECTION('',(0.E0,0.E0,-1.E0));
#93=AXIS2_PLACEMENT_3D('',#90,#91,#92);
#95=DIRECTION('',(0.E0,-1.E0,0.E0));
#96=VECTOR('',#95,2.E0);
#97=CARTESIAN_POINT('',(0.E0,-1.8E1,2.E0));
#98=LINE('',#97,#96);
#99=CARTESIAN_POINT('',(0.E0,-1.8E1,0.E0));
#100=DIRECTION('',(0.E0,1.E0,0.E0));
#101=DIRECTION('',(0.E0,0.E0,-1.E0));
#102=AXIS2_PLACEMENT_3D('',#99,#100,#101);
#104=CARTESIAN_POINT('',(0.E0,-2.E1,0.E0));
#105=DIRECTION('',(0.E0,1.E0,0.E0));
#106=DIRECTION('',(0.E0,0.E0,-1.E0));
#107=AXIS2_PLACEMENT_3D('',#104,#105,#106);
#109=CARTESIAN_POINT('',(0.E0,-2.E1,0.E0));
#110=DIRECTION('',(0.E0,-1.E0,0.E0));
#111=DIRECTION('',(0.E0,0.E0,-1.E0));
#112=AXIS2_PLACEMENT_3D('',#109,#110,#111);
#114=CARTESIAN_POINT('',(0.E0,-2.E1,0.E0));
#115=DIRECTION('',(0.E0,1.E0,0.E0));
#116=DIRECTION('',(0.E0,0.E0,-1.E0));
#117=AXIS2_PLACEMENT_3D('',#114,#115,#116);
#119=CARTESIAN_POINT('',(0.E0,-2.E1,0.E0));
#120=DIRECTION('',(0.E0,1.E0,0.E0));
#121=DIRECTION('',(0.E0,0.E0,1.E0));
#122=AXIS2_PLACEMENT_3D('',#119,#120,#121);
#124=CARTESIAN_POINT('',(2.309208380069E-12,-1.8E1,-2.E1));
#125=DIRECTION('',(-1.E0,0.E0,-1.154605924758E-13));
#126=DIRECTION('',(1.154605924758E-13,0.E0,-1.E0));
#127=AXIS2_PLACEMENT_3D('',#124,#125,#126);
#129=CARTESIAN_POINT('',(0.E0,-9.E-1,0.E0));
#130=DIRECTION('',(0.E0,1.E0,0.E0));
#131=DIRECTION('',(0.E0,0.E0,-1.E0));
#132=AXIS2_PLACEMENT_3D('',#129,#130,#131);
#134=CARTESIAN_POINT('',(0.E0,-1.8E1,0.E0));
#135=DIRECTION('',(0.E0,1.E0,0.E0));
#136=DIRECTION('',(0.E0,0.E0,-1.E0));
#137=AXIS2_PLACEMENT_3D('',#134,#135,#136);
#139=CARTESIAN_POINT('',(2.360237005838E-12,-9.E-1,-2.11E1));
#140=DIRECTION('',(-1.E0,0.E0,-1.118593065397E-13));
#141=DIRECTION('',(0.E0,1.E0,0.E0));
#142=AXIS2_PLACEMENT_3D('',#139,#140,#141);
#144=CARTESIAN_POINT('',(-2.375974417212E-12,-9.E-1,2.11E1));
#145=DIRECTION('',(1.E0,0.E0,1.126052376343E-13));
#146=DIRECTION('',(0.E0,1.E0,0.E0));
#147=AXIS2_PLACEMENT_3D('',#144,#145,#146);
#149=CARTESIAN_POINT('',(0.E0,-9.E-1,0.E0));
#150=DIRECTION('',(0.E0,1.E0,0.E0));
#151=DIRECTION('',(0.E0,0.E0,1.E0));
#152=AXIS2_PLACEMENT_3D('',#149,#150,#151);
#154=DIRECTION('',(-3.472409169819E-14,1.E0,0.E0));
#155=VECTOR('',#154,1.71E1);
#156=CARTESIAN_POINT('',(1.147727746176E-13,-1.8E1,-2.2E1));
#157=LINE('',#156,#155);
#158=CARTESIAN_POINT('',(0.E0,-1.8E1,0.E0));
#159=DIRECTION('',(0.E0,1.E0,0.E0));
#160=DIRECTION('',(0.E0,0.E0,1.E0));
#161=AXIS2_PLACEMENT_3D('',#158,#159,#160);
#163=DIRECTION('',(3.456867670607E-14,1.E0,0.E0));
#164=VECTOR('',#163,1.71E1);
#165=CARTESIAN_POINT('',(-1.196195920095E-13,-1.8E1,2.2E1));
#166=LINE('',#165,#164);
#167=CARTESIAN_POINT('',(-2.315619918036E-12,-1.8E1,2.E1));
#168=DIRECTION('',(1.E0,0.E0,1.157815163189E-13));
#169=DIRECTION('',(-1.157815163189E-13,0.E0,1.E0));
#170=AXIS2_PLACEMENT_3D('',#167,#168,#169);
#172=DIRECTION('',(6.831348039788E-11,6.972205292300E-1,-7.168567036864E-1));
#173=VECTOR('',#172,2.867426814753E0);
#174=CARTESIAN_POINT('',(-1.198876561058E-9,-1.800000000003E1,
-1.779999999997E1));
#175=LINE('',#174,#173);
#176=CARTESIAN_POINT('',(0.E0,-1.8E1,-2.E0));
#177=CARTESIAN_POINT('',(0.E0,-2.E1,-2.E0));
#178=VERTEX_POINT('',#176);
#179=VERTEX_POINT('',#177);
#180=CARTESIAN_POINT('',(0.E0,-1.8E1,2.E0));
#181=CARTESIAN_POINT('',(0.E0,-2.E1,2.E0));
#182=VERTEX_POINT('',#180);
#183=VERTEX_POINT('',#181);
#184=CARTESIAN_POINT('',(0.E0,-1.8E1,-2.2E1));
#185=CARTESIAN_POINT('',(0.E0,-1.8E1,2.2E1));
#186=VERTEX_POINT('',#184);
#187=VERTEX_POINT('',#185);
#188=CARTESIAN_POINT('',(0.E0,-2.E1,-2.E1));
#189=CARTESIAN_POINT('',(0.E0,-2.E1,2.E1));
#190=VERTEX_POINT('',#188);
#191=VERTEX_POINT('',#189);
#192=CARTESIAN_POINT('',(0.E0,-1.8E1,-1.78E1));
#193=CARTESIAN_POINT('',(0.E0,-1.8E1,1.78E1));
#194=VERTEX_POINT('',#192);
#195=VERTEX_POINT('',#193);
#196=CARTESIAN_POINT('',(0.E0,-1.600077115869E1,-1.985553413448E1));
#197=CARTESIAN_POINT('',(0.E0,-1.600077115869E1,1.985553413448E1));
#198=VERTEX_POINT('',#196);
#199=VERTEX_POINT('',#197);
#200=CARTESIAN_POINT('',(0.E0,-7.777863462077E-1,2.027839482372E1));
#201=CARTESIAN_POINT('',(0.E0,-7.777863462077E-1,-2.027839482372E1));
#202=VERTEX_POINT('',#200);
#203=VERTEX_POINT('',#201);
#204=CARTESIAN_POINT('',(0.E0,4.551914400963E-14,2.107808636024E1));
#205=CARTESIAN_POINT('',(0.E0,4.551914400963E-14,-2.107808636024E1));
#206=VERTEX_POINT('',#204);
#207=VERTEX_POINT('',#205);
#208=CARTESIAN_POINT('',(0.E0,0.E0,2.11E1));
#209=CARTESIAN_POINT('',(0.E0,0.E0,-2.11E1));
#210=VERTEX_POINT('',#208);
#211=VERTEX_POINT('',#209);
#212=CARTESIAN_POINT('',(0.E0,-9.E-1,2.2E1));
#213=CARTESIAN_POINT('',(0.E0,-9.E-1,-2.2E1));
#214=VERTEX_POINT('',#212);
#215=VERTEX_POINT('',#213);
#216=CARTESIAN_POINT('',(0.E0,0.E0,0.E0));
#217=DIRECTION('',(0.E0,1.E0,0.E0));
#218=DIRECTION('',(0.E0,0.E0,-1.E0));
#219=AXIS2_PLACEMENT_3D('',#216,#217,#218);
#220=PLANE('',#219);
#222=ORIENTED_EDGE('',*,*,#221,.F.);
#224=ORIENTED_EDGE('',*,*,#223,.F.);
#225=EDGE_LOOP('',(#222,#224));
#226=FACE_OUTER_BOUND('',#225,.F.);
#228=ORIENTED_EDGE('',*,*,#227,.T.);
#230=ORIENTED_EDGE('',*,*,#229,.T.);
#231=EDGE_LOOP('',(#228,#230));
#232=FACE_BOUND('',#231,.F.);
#234=CARTESIAN_POINT('',(0.E0,-8.E-1,0.E0));
#235=DIRECTION('',(0.E0,1.E0,0.E0));
#236=DIRECTION('',(-5.247807874E-3,0.E0,9.999862301615E-1));
#237=AXIS2_PLACEMENT_3D('',#234,#235,#236);
#238=TOROIDAL_SURFACE('',#237,2.107808636024E1,8.E-1);
#240=ORIENTED_EDGE('',*,*,#239,.T.);
#242=ORIENTED_EDGE('',*,*,#241,.T.);
#243=ORIENTED_EDGE('',*,*,#227,.F.);
#245=ORIENTED_EDGE('',*,*,#244,.F.);
#246=EDGE_LOOP('',(#240,#242,#243,#245));
#247=FACE_OUTER_BOUND('',#246,.F.);
#249=CARTESIAN_POINT('',(0.E0,-8.389278752451E0,0.E0));
#250=DIRECTION('',(0.E0,1.E0,0.E0));
#251=DIRECTION('',(0.E0,0.E0,-1.E0));
#252=AXIS2_PLACEMENT_3D('',#249,#250,#251);
#253=CONICAL_SURFACE('',#252,2.006696447910E1,1.591140271195E0);
#254=ORIENTED_EDGE('',*,*,#239,.F.);
#256=ORIENTED_EDGE('',*,*,#255,.T.);
#258=ORIENTED_EDGE('',*,*,#257,.F.);
#260=ORIENTED_EDGE('',*,*,#259,.F.);
#261=EDGE_LOOP('',(#254,#256,#258,#260));
#262=FACE_OUTER_BOUND('',#261,.F.);
#264=CARTESIAN_POINT('',(0.E0,-8.389278752451E0,0.E0));
#265=DIRECTION('',(0.E0,1.E0,0.E0));
#266=DIRECTION('',(0.E0,0.E0,-1.E0));
#267=AXIS2_PLACEMENT_3D('',#264,#265,#266);
#268=CONICAL_SURFACE('',#267,2.006696447910E1,1.591140271195E0);
#270=ORIENTED_EDGE('',*,*,#269,.F.);
#271=ORIENTED_EDGE('',*,*,#259,.T.);
#273=ORIENTED_EDGE('',*,*,#272,.F.);
#274=ORIENTED_EDGE('',*,*,#255,.F.);
#275=EDGE_LOOP('',(#270,#271,#273,#274));
#276=FACE_OUTER_BOUND('',#275,.F.);
#278=CARTESIAN_POINT('',(0.E0,-8.E-1,0.E0));
#279=DIRECTION('',(0.E0,1.E0,0.E0));
#280=DIRECTION('',(5.247807873999E-3,0.E0,-9.999862301615E-1));
#281=AXIS2_PLACEMENT_3D('',#278,#279,#280);
#282=TOROIDAL_SURFACE('',#281,2.107808636024E1,8.E-1);
#283=ORIENTED_EDGE('',*,*,#269,.T.);
#284=ORIENTED_EDGE('',*,*,#244,.T.);
#285=ORIENTED_EDGE('',*,*,#229,.F.);
#286=ORIENTED_EDGE('',*,*,#241,.F.);
#287=EDGE_LOOP('',(#283,#284,#285,#286));
#288=FACE_OUTER_BOUND('',#287,.F.);
#290=CARTESIAN_POINT('',(-1.712177078080E-14,-1.700038557938E1,0.E0));
#291=DIRECTION('',(0.E0,1.E0,0.E0));
#292=DIRECTION('',(0.E0,0.E0,-1.E0));
#293=AXIS2_PLACEMENT_3D('',#290,#291,#292);
#294=CONICAL_SURFACE('',#293,1.882776706721E1,4.579557013560E1);
#296=ORIENTED_EDGE('',*,*,#295,.F.);
#298=ORIENTED_EDGE('',*,*,#297,.T.);
#299=ORIENTED_EDGE('',*,*,#272,.T.);
#301=ORIENTED_EDGE('',*,*,#300,.F.);
#302=EDGE_LOOP('',(#296,#298,#299,#301));
#303=FACE_OUTER_BOUND('',#302,.F.);
#305=CARTESIAN_POINT('',(0.E0,-1.8E1,0.E0));
#306=DIRECTION('',(0.E0,1.E0,0.E0));
#307=DIRECTION('',(0.E0,0.E0,-1.E0));
#308=AXIS2_PLACEMENT_3D('',#305,#306,#307);
#309=PLANE('',#308);
#311=ORIENTED_EDGE('',*,*,#310,.T.);
#312=ORIENTED_EDGE('',*,*,#295,.T.);
#313=EDGE_LOOP('',(#311,#312));
#314=FACE_OUTER_BOUND('',#313,.F.);
#316=ORIENTED_EDGE('',*,*,#315,.F.);
#318=ORIENTED_EDGE('',*,*,#317,.T.);
#319=EDGE_LOOP('',(#316,#318));
#320=FACE_BOUND('',#319,.F.);
#322=CARTESIAN_POINT('',(0.E0,0.E0,0.E0));
#323=DIRECTION('',(0.E0,1.E0,0.E0));
#324=DIRECTION('',(0.E0,0.E0,-1.E0));
#325=AXIS2_PLACEMENT_3D('',#322,#323,#324);
#326=CYLINDRICAL_SURFACE('',#325,2.E0);
#328=ORIENTED_EDGE('',*,*,#327,.F.);
#329=ORIENTED_EDGE('',*,*,#315,.T.);
#331=ORIENTED_EDGE('',*,*,#330,.T.);
#333=ORIENTED_EDGE('',*,*,#332,.F.);
#334=EDGE_LOOP('',(#328,#329,#331,#333));
#335=FACE_OUTER_BOUND('',#334,.F.);
#337=CARTESIAN_POINT('',(0.E0,0.E0,0.E0));
#338=DIRECTION('',(0.E0,1.E0,0.E0));
#339=DIRECTION('',(0.E0,0.E0,-1.E0));
#340=AXIS2_PLACEMENT_3D('',#337,#338,#339);
#341=CYLINDRICAL_SURFACE('',#340,2.E0);
#342=ORIENTED_EDGE('',*,*,#327,.T.);
#344=ORIENTED_EDGE('',*,*,#343,.T.);
#345=ORIENTED_EDGE('',*,*,#330,.F.);
#346=ORIENTED_EDGE('',*,*,#317,.F.);
#347=EDGE_LOOP('',(#342,#344,#345,#346));
#348=FACE_OUTER_BOUND('',#347,.F.);
#350=CARTESIAN_POINT('',(0.E0,-2.E1,0.E0));
#351=DIRECTION('',(0.E0,1.E0,0.E0));
#352=DIRECTION('',(0.E0,0.E0,-1.E0));
#353=AXIS2_PLACEMENT_3D('',#350,#351,#352);
#354=PLANE('',#353);
#356=ORIENTED_EDGE('',*,*,#355,.T.);
#358=ORIENTED_EDGE('',*,*,#357,.T.);
#359=EDGE_LOOP('',(#356,#358));
#360=FACE_OUTER_BOUND('',#359,.F.);
#361=ORIENTED_EDGE('',*,*,#343,.F.);
#362=ORIENTED_EDGE('',*,*,#332,.T.);
#363=EDGE_LOOP('',(#361,#362));
#364=FACE_BOUND('',#363,.F.);
#366=CARTESIAN_POINT('',(0.E0,-1.8E1,0.E0));
#367=DIRECTION('',(0.E0,1.E0,0.E0));
#368=DIRECTION('',(4.789288405786E-3,0.E0,-9.999885312925E-1));
#369=AXIS2_PLACEMENT_3D('',#366,#367,#368);
#370=TOROIDAL_SURFACE('',#369,2.E1,2.E0);
#372=ORIENTED_EDGE('',*,*,#371,.T.);
#374=ORIENTED_EDGE('',*,*,#373,.T.);
#375=ORIENTED_EDGE('',*,*,#355,.F.);
#377=ORIENTED_EDGE('',*,*,#376,.F.);
#378=EDGE_LOOP('',(#372,#374,#375,#377));
#379=FACE_OUTER_BOUND('',#378,.F.);
#381=CARTESIAN_POINT('',(0.E0,0.E0,0.E0));
#382=DIRECTION('',(0.E0,1.E0,0.E0));
#383=DIRECTION('',(0.E0,0.E0,-1.E0));
#384=AXIS2_PLACEMENT_3D('',#381,#382,#383);
#385=CYLINDRICAL_SURFACE('',#384,2.2E1);
#387=ORIENTED_EDGE('',*,*,#386,.T.);
#389=ORIENTED_EDGE('',*,*,#388,.F.);
#390=ORIENTED_EDGE('',*,*,#371,.F.);
#392=ORIENTED_EDGE('',*,*,#391,.T.);
#393=EDGE_LOOP('',(#387,#389,#390,#392));
#394=FACE_OUTER_BOUND('',#393,.F.);
#396=CARTESIAN_POINT('',(0.E0,-9.E-1,0.E0));
#397=DIRECTION('',(0.E0,1.E0,0.E0));
#398=DIRECTION('',(4.568937069973E-3,0.E0,-9.999895623526E-1));
#399=AXIS2_PLACEMENT_3D('',#396,#397,#398);
#400=TOROIDAL_SURFACE('',#399,2.11E1,9.E-1);
#401=ORIENTED_EDGE('',*,*,#223,.T.);
#403=ORIENTED_EDGE('',*,*,#402,.T.);
#404=ORIENTED_EDGE('',*,*,#386,.F.);
#406=ORIENTED_EDGE('',*,*,#405,.F.);
#407=EDGE_LOOP('',(#401,#403,#404,#406));
#408=FACE_OUTER_BOUND('',#407,.F.);
#410=CARTESIAN_POINT('',(0.E0,-9.E-1,0.E0));
#411=DIRECTION('',(0.E0,1.E0,0.E0));
#412=DIRECTION('',(-4.568937069974E-3,0.E0,9.999895623526E-1));
#413=AXIS2_PLACEMENT_3D('',#410,#411,#412);
#414=TOROIDAL_SURFACE('',#413,2.11E1,9.E-1);
#415=ORIENTED_EDGE('',*,*,#221,.T.);
#416=ORIENTED_EDGE('',*,*,#405,.T.);
#418=ORIENTED_EDGE('',*,*,#417,.F.);
#419=ORIENTED_EDGE('',*,*,#402,.F.);
#420=EDGE_LOOP('',(#415,#416,#418,#419));
#421=FACE_OUTER_BOUND('',#420,.F.);
#423=CARTESIAN_POINT('',(0.E0,0.E0,0.E0));
#424=DIRECTION('',(0.E0,1.E0,0.E0));
#425=DIRECTION('',(0.E0,0.E0,-1.E0));
#426=AXIS2_PLACEMENT_3D('',#423,#424,#425);
#427=CYLINDRICAL_SURFACE('',#426,2.2E1);
#428=ORIENTED_EDGE('',*,*,#417,.T.);
#429=ORIENTED_EDGE('',*,*,#391,.F.);
#431=ORIENTED_EDGE('',*,*,#430,.F.);
#432=ORIENTED_EDGE('',*,*,#388,.T.);
#433=EDGE_LOOP('',(#428,#429,#431,#432));
#434=FACE_OUTER_BOUND('',#433,.F.);
#436=CARTESIAN_POINT('',(0.E0,-1.8E1,0.E0));
#437=DIRECTION('',(0.E0,1.E0,0.E0));
#438=DIRECTION('',(-4.789288405786E-3,0.E0,9.999885312925E-1));
#439=AXIS2_PLACEMENT_3D('',#436,#437,#438);
#440=TOROIDAL_SURFACE('',#439,2.E1,2.E0);
#441=ORIENTED_EDGE('',*,*,#430,.T.);
#442=ORIENTED_EDGE('',*,*,#376,.T.);
#443=ORIENTED_EDGE('',*,*,#357,.F.);
#444=ORIENTED_EDGE('',*,*,#373,.F.);
#445=EDGE_LOOP('',(#441,#442,#443,#444));
#446=FACE_OUTER_BOUND('',#445,.F.);
#448=CARTESIAN_POINT('',(0.E0,-1.700038557938E1,0.E0));
#449=DIRECTION('',(0.E0,1.E0,0.E0));
#450=DIRECTION('',(0.E0,0.E0,-1.E0));
#451=AXIS2_PLACEMENT_3D('',#448,#449,#450);
#452=CONICAL_SURFACE('',#451,1.882776706721E1,4.579557013560E1);
#453=ORIENTED_EDGE('',*,*,#310,.F.);
#454=ORIENTED_EDGE('',*,*,#300,.T.);
#455=ORIENTED_EDGE('',*,*,#257,.T.);
#456=ORIENTED_EDGE('',*,*,#297,.F.);
#457=EDGE_LOOP('',(#453,#454,#455,#456));
#458=FACE_OUTER_BOUND('',#457,.F.);
#460=CLOSED_SHELL('',(#233,#248,#263,#277,#289,#304,#321,#336,#349,#365,#380,
#395,#409,#422,#435,#447,#459));
#461=MANIFOLD_SOLID_BREP('',#460);
#464=PLANE_ANGLE_MEASURE_WITH_UNIT(PLANE_ANGLE_MEASURE(1.745329251994E-2),#463);
#465=(CONVERSION_BASED_UNIT('DEGREE',#464)NAMED_UNIT(*)PLANE_ANGLE_UNIT());
#467=UNCERTAINTY_MEASURE_WITH_UNIT(LENGTH_MEASURE(6.536923499029E-3),#462,
'distance_accuracy_value',
'Maximum model space distance between geometric entities at asserted connectivities');
#470=APPLICATION_CONTEXT('automotive_design');
#471=APPLICATION_PROTOCOL_DEFINITION('international standard',
'automotive_design',2001,#470);
#472=PRODUCT_DEFINITION_CONTEXT('part definition',#470,'design');
#473=PRODUCT_CONTEXT('',#470,'mechanical');
#474=PRODUCT('J_BOUCHON_V2','J_BOUCHON_V2','NOT SPECIFIED',(#473));
#475=PRODUCT_DEFINITION_FORMATION('2','LAST_VERSION',#474);
#483=DERIVED_UNIT_ELEMENT(#482,2.E0);
#484=DERIVED_UNIT((#483));
#485=MEASURE_REPRESENTATION_ITEM('surface area measure',AREA_MEASURE(
7.649995375454E3),#484);
#490=DERIVED_UNIT_ELEMENT(#489,3.E0);
#491=DERIVED_UNIT((#490));
#492=MEASURE_REPRESENTATION_ITEM('volume measure',VOLUME_MEASURE(
7.735568046767E3),#491);
#496=CARTESIAN_POINT('centre point',(0.E0,-1.326505406758E1,0.E0));
#501=DERIVED_UNIT_ELEMENT(#500,2.E0);
#502=DERIVED_UNIT((#501));
#503=MEASURE_REPRESENTATION_ITEM('surface area measure',AREA_MEASURE(
7.649995375454E3),#502);
#508=DERIVED_UNIT_ELEMENT(#507,3.E0);
#509=DERIVED_UNIT((#508));
#510=MEASURE_REPRESENTATION_ITEM('volume measure',VOLUME_MEASURE(
7.735568046767E3),#509);
#514=CARTESIAN_POINT('centre point',(0.E0,-1.326505406758E1,0.E0));
#519=PRODUCT_RELATED_PRODUCT_CATEGORY('part','',(#474));
#520=(GEOMETRIC_REPRESENTATION_CONTEXT(2)PARAMETRIC_REPRESENTATION_CONTEXT()REPRESENTATION_CONTEXT('2D coordinate system context','2'));
#521=DRAUGHTING_MODEL('Default',(#533,#534,#550),#520);
#522=PRESENTATION_VIEW('Default',(#541,#554),#520);
#523=CARTESIAN_POINT('',(0.E0,0.E0,0.E0));
#524=CARTESIAN_POINT('',(-3.334835794882E1,-3.692756745174E1,1.256678923567E2));
#525=DIRECTION('',(0.E0,0.E0,1.E0));
#526=DIRECTION('',(1.E0,0.E0,0.E0));
#527=AXIS2_PLACEMENT_3D('',#524,#525,#526);
#529=VIEW_VOLUME(.PARALLEL.,#523,1.256678923567E2,1.256678923567E2,.T.,0.E0,.F.,
.T.,#528);
#530=CARTESIAN_POINT('',(1.822151060227E1,7.788646297727E1,1.089488541538E2));
#531=DIRECTION('',(3.894183423087E-1,7.214918620107E-1,5.725406952575E-1));
#532=DIRECTION('',(9.210609940029E-1,-3.050418666329E-1,-2.420663234065E-1));
#533=AXIS2_PLACEMENT_3D('',#530,#531,#532);
#534=CAMERA_MODEL_D3_WITH_HLHSR('DEFAULT',#533,#529,.F.);
#536=CARTESIAN_POINT('',(-4.580972363634E2,-5.072638545270E2,1.726265331462E3));
#537=DIRECTION('',(0.E0,0.E0,1.E0));
#538=DIRECTION('',(1.E0,0.E0,0.E0));
#539=AXIS2_PLACEMENT_3D('',#536,#537,#538);
#541=(CAMERA_IMAGE()CAMERA_IMAGE_3D_WITH_SCALE()GEOMETRIC_REPRESENTATION_ITEM()MAPPED_ITEM(#535,#540)REPRESENTATION_ITEM(''));
#542=CARTESIAN_POINT('',(-3.334835794882E1,-3.692756745174E1,1.256678923567E2));
#543=DIRECTION('',(0.E0,0.E0,1.E0));
#544=DIRECTION('',(1.E0,0.E0,0.E0));
#545=AXIS2_PLACEMENT_3D('',#542,#543,#544);
#546=REPRESENTATION_MAP(#545,#469);
#547=CARTESIAN_POINT('',(0.E0,0.E0));
#548=DIRECTION('',(1.E0,0.E0));
#549=AXIS2_PLACEMENT_2D('',#547,#548);
#550=MAPPED_ITEM('',#546,#549);
#551=CARTESIAN_POINT('',(-3.334835794882E1,-3.692756745174E1,1.256678923567E2));
#552=DIRECTION('',(0.E0,0.E0,1.E0));
#553=DIRECTION('',(1.E0,0.E0,0.E0));
#554=AXIS2_PLACEMENT_3D('',#551,#552,#553);
#555=REPRESENTATION_MAP(#554,#522);
#556=CARTESIAN_POINT('',(0.E0,0.E0));
#557=DIRECTION('',(1.E0,0.E0));
#558=AXIS2_PLACEMENT_2D('',#556,#557);
#559=MAPPED_ITEM('',#555,#558);
#561=CARTESIAN_POINT('',(0.E0,0.E0));
#562=DIRECTION('',(1.E0,0.E0));
#563=AXIS2_PLACEMENT_2D('',#561,#562);
#564=PLANAR_BOX('',1.E3,8.4375E2,#563);
#565=PRESENTATION_SIZE(#560,#564);
#566=PRESENTATION_SET();
#567=AREA_IN_SET(#560,#566);
#569=GENERAL_PROPERTY('','DESCRIPTION','user defined attribute');
#570=GENERAL_PROPERTY_ASSOCIATION('user defined attribute','',#569,#568);
#571=DESCRIPTIVE_REPRESENTATION_ITEM('DESCRIPTION','');
#575=GENERAL_PROPERTY('','MODELED_BY','user defined attribute');
#576=GENERAL_PROPERTY_ASSOCIATION('user defined attribute','',#575,#574);
#577=DESCRIPTIVE_REPRESENTATION_ITEM('MODELED_BY','');
#580=APPLIED_PRESENTED_ITEM((#476));
#581=PRESENTED_ITEM_REPRESENTATION(#566,#580);
#1=DRAUGHTING_PRE_DEFINED_COLOUR('green');
#2=COLOUR_RGB('',1.1E-2,1.2E-2,1.E0);
#3=COLOUR_RGB('',4.1E-1,2.61589E-1,1.12848E-1);
#4=COLOUR_RGB('',5.04854E-1,1.5455E-2,1.5455E-2);
#5=COLOUR_RGB('',6.35294E-1,6.86275E-1,7.4902E-1);
#6=COLOUR_RGB('',6.40777E-1,6.40777E-1,6.40777E-1);
#7=COLOUR_RGB('',6.69062E-1,6.69903E-1,6.55217E-1);
#8=COLOUR_RGB('',9.21569E-1,7.05882E-1,4.70588E-1);
#9=DRAUGHTING_PRE_DEFINED_COLOUR('red');
#10=DRAUGHTING_PRE_DEFINED_COLOUR('yellow');
#11=COLOUR_RGB('',1.E0,1.E0,5.3E-1);
#12=COLOUR_RGB('',1.E0,1.E0,9.49E-1);
#13=DRAUGHTING_PRE_DEFINED_COLOUR('white');
#18=CIRCLE('',#17,2.107808636024E1);
#23=CIRCLE('',#22,2.107808636024E1);
#28=CIRCLE('',#27,2.11E1);
#33=CIRCLE('',#32,2.11E1);
#38=CIRCLE('',#37,8.E-1);
#43=CIRCLE('',#42,2.027839482372E1);
#52=CIRCLE('',#51,1.985553413448E1);
#61=CIRCLE('',#60,2.027839482372E1);
#66=CIRCLE('',#65,1.985553413448E1);
#71=CIRCLE('',#70,8.E-1);
#80=CIRCLE('',#79,1.78E1);
#85=CIRCLE('',#84,1.78E1);
#94=CIRCLE('',#93,2.E0);
#103=CIRCLE('',#102,2.E0);
#108=CIRCLE('',#107,2.E0);
#113=CIRCLE('',#112,2.E0);
#118=CIRCLE('',#117,2.E1);
#123=CIRCLE('',#122,2.E1);
#128=CIRCLE('',#127,2.E0);
#133=CIRCLE('',#132,2.2E1);
#138=CIRCLE('',#137,2.2E1);
#143=CIRCLE('',#142,9.E-1);
#148=CIRCLE('',#147,9.E-1);
#153=CIRCLE('',#152,2.2E1);
#162=CIRCLE('',#161,2.2E1);
#171=CIRCLE('',#170,2.E0);
#221=EDGE_CURVE('',#210,#211,#28,.T.);
#223=EDGE_CURVE('',#211,#210,#33,.T.);
#227=EDGE_CURVE('',#206,#207,#18,.T.);
#229=EDGE_CURVE('',#207,#206,#23,.T.);
#233=ADVANCED_FACE('',(#226,#232),#220,.T.);
#239=EDGE_CURVE('',#202,#203,#43,.T.);
#241=EDGE_CURVE('',#203,#207,#71,.T.);
#244=EDGE_CURVE('',#202,#206,#38,.T.);
#248=ADVANCED_FACE('',(#247),#238,.T.);
#255=EDGE_CURVE('',#202,#199,#47,.T.);
#257=EDGE_CURVE('',#198,#199,#52,.T.);
#259=EDGE_CURVE('',#203,#198,#56,.T.);
#263=ADVANCED_FACE('',(#262),#253,.F.);
#269=EDGE_CURVE('',#203,#202,#61,.T.);
#272=EDGE_CURVE('',#199,#198,#66,.T.);
#277=ADVANCED_FACE('',(#276),#268,.F.);
#289=ADVANCED_FACE('',(#288),#282,.T.);
#295=EDGE_CURVE('',#195,#194,#85,.T.);
#297=EDGE_CURVE('',#195,#199,#75,.T.);
#300=EDGE_CURVE('',#194,#198,#175,.T.);
#304=ADVANCED_FACE('',(#303),#294,.F.);
#310=EDGE_CURVE('',#194,#195,#80,.T.);
#315=EDGE_CURVE('',#178,#182,#94,.T.);
#317=EDGE_CURVE('',#178,#182,#103,.T.);
#321=ADVANCED_FACE('',(#314,#320),#309,.T.);
#327=EDGE_CURVE('',#178,#179,#89,.T.);
#330=EDGE_CURVE('',#182,#183,#98,.T.);
#332=EDGE_CURVE('',#179,#183,#113,.T.);
#336=ADVANCED_FACE('',(#335),#326,.F.);
#343=EDGE_CURVE('',#179,#183,#108,.T.);
#349=ADVANCED_FACE('',(#348),#341,.F.);
#355=EDGE_CURVE('',#190,#191,#118,.T.);
#357=EDGE_CURVE('',#191,#190,#123,.T.);
#365=ADVANCED_FACE('',(#360,#364),#354,.F.);
#371=EDGE_CURVE('',#186,#187,#138,.T.);
#373=EDGE_CURVE('',#187,#191,#171,.T.);
#376=EDGE_CURVE('',#186,#190,#128,.T.);
#380=ADVANCED_FACE('',(#379),#370,.T.);
#386=EDGE_CURVE('',#215,#214,#133,.T.);
#388=EDGE_CURVE('',#187,#214,#166,.T.);
#391=EDGE_CURVE('',#186,#215,#157,.T.);
#395=ADVANCED_FACE('',(#394),#385,.T.);
#402=EDGE_CURVE('',#210,#214,#148,.T.);
#405=EDGE_CURVE('',#211,#215,#143,.T.);
#409=ADVANCED_FACE('',(#408),#400,.T.);
#417=EDGE_CURVE('',#214,#215,#153,.T.);
#422=ADVANCED_FACE('',(#421),#414,.T.);
#430=EDGE_CURVE('',#187,#186,#162,.T.);
#435=ADVANCED_FACE('',(#434),#427,.T.);
#447=ADVANCED_FACE('',(#446),#440,.T.);
#459=ADVANCED_FACE('',(#458),#452,.F.);
#462=(LENGTH_UNIT()NAMED_UNIT(*)SI_UNIT(.MILLI.,.METRE.));
#463=(NAMED_UNIT(*)PLANE_ANGLE_UNIT()SI_UNIT($,.RADIAN.));
#466=(NAMED_UNIT(*)SI_UNIT($,.STERADIAN.)SOLID_ANGLE_UNIT());
#468=(GEOMETRIC_REPRESENTATION_CONTEXT(3)GLOBAL_UNCERTAINTY_ASSIGNED_CONTEXT((
#467))GLOBAL_UNIT_ASSIGNED_CONTEXT((#462,#465,#466))REPRESENTATION_CONTEXT
('ID1','external'));
#469=ADVANCED_BREP_SHAPE_REPRESENTATION('',(#461),#468);
#476=PRODUCT_DEFINITION('part definition','',#475,#472);
#477=PRODUCT_DEFINITION_SHAPE('','SHAPE FOR J_BOUCHON_V2.',#476);
#478=SHAPE_ASPECT('','solid data associated with J_BOUCHON_V2',#477,.F.);
#479=PROPERTY_DEFINITION('',
'shape for solid data with which properties are associated',#478);
#480=SHAPE_REPRESENTATION('',(#461),#468);
#481=SHAPE_DEFINITION_REPRESENTATION(#479,#480);
#482=(LENGTH_UNIT()NAMED_UNIT(*)SI_UNIT(.MILLI.,.METRE.));
#486=PROPERTY_DEFINITION('geometric validation property','area of J_BOUCHON_V2',
#478);
#487=REPRESENTATION('surface area',(#485),#468);
#488=PROPERTY_DEFINITION_REPRESENTATION(#486,#487);
#489=(LENGTH_UNIT()NAMED_UNIT(*)SI_UNIT(.MILLI.,.METRE.));
#493=PROPERTY_DEFINITION('geometric validation property',
'volume of J_BOUCHON_V2',#478);
#494=REPRESENTATION('volume',(#492),#468);
#495=PROPERTY_DEFINITION_REPRESENTATION(#493,#494);
#497=PROPERTY_DEFINITION('geometric validation property',
'centroid of J_BOUCHON_V2',#478);
#498=REPRESENTATION('centroid',(#496),#468);
#499=PROPERTY_DEFINITION_REPRESENTATION(#497,#498);
#500=(LENGTH_UNIT()NAMED_UNIT(*)SI_UNIT(.MILLI.,.METRE.));
#504=PROPERTY_DEFINITION('geometric validation property','area of J_BOUCHON_V2',
#477);
#505=REPRESENTATION('surface area',(#503),#468);
#506=PROPERTY_DEFINITION_REPRESENTATION(#504,#505);
#507=(LENGTH_UNIT()NAMED_UNIT(*)SI_UNIT(.MILLI.,.METRE.));
#511=PROPERTY_DEFINITION('geometric validation property',
'volume of J_BOUCHON_V2',#477);
#512=REPRESENTATION('volume',(#510),#468);
#513=PROPERTY_DEFINITION_REPRESENTATION(#511,#512);
#515=PROPERTY_DEFINITION('geometric validation property',
'centroid of J_BOUCHON_V2',#477);
#516=REPRESENTATION('centroid',(#514),#468);
#517=PROPERTY_DEFINITION_REPRESENTATION(#515,#516);
#518=SHAPE_DEFINITION_REPRESENTATION(#477,#469);
#528=PLANAR_BOX('',7.279755323030E1,6.142293553806E1,#527);
#535=CAMERA_USAGE(#534,#521);
#540=PLANAR_BOX('',1.E3,8.4375E2,#539);
#560=PRESENTATION_AREA('',(#559,#564),#520);
#568=PROPERTY_DEFINITION('DESCRIPTION','user defined attribute',#476);
#572=REPRESENTATION('',(#571),#468);
#573=PROPERTY_DEFINITION_REPRESENTATION(#568,#572);
#574=PROPERTY_DEFINITION('MODELED_BY','user defined attribute',#476);
#578=REPRESENTATION('',(#577),#468);
#579=PROPERTY_DEFINITION_REPRESENTATION(#574,#578);
ENDSEC;
END-ISO-10303-21;
